191002_중간_강연욱
…
4

laptopsale <- read.csv("/Users/noblyan/Desktop/LaptopSalesJanuary2008.csv", header=T, stringsAsFactors = F)
View(laptopsale)
#Store.Postcode별 Retail.Price 구할 것.

lapsale<-laptopsale %>% group_by(Store.Postcode) %>% 
          select(Retail.Price) %>% 
           mutate(max_p = max(Retail.Price), min_p=min(Retail.Price))

## Adding missing grouping variables: `Store.Postcode`

lapsale

## # A tibble: 7,956 x 4
## # Groups:   Store.Postcode [16]
##    Store.Postcode Retail.Price max_p min_p
##    <chr>                 <int> <int> <int>
##  1 SE1 2BN                 455   665   300
##  2 SW12 9HD                545   665   300
##  3 E2 0RY                  515   665   300
##  4 SE1 2BN                 395   665   300
##  5 SW1V 4QQ                585   665   300
##  6 SW1V 4QQ                555   665   300
##  7 SE8 3JD                 465   665   300
##  8 E2 0RY                  450   665   300
##  9 SW18 1NN                455   665   300
## 10 SW1V 4QQ                620   665   300
## # … with 7,946 more rows
…
